id;poste;notes;adresse_id
1;CUISINIER;Gorgeous Fresh Table gold;1
2;CHEF;Wooden relationships;2
3;COMMERCIAL;infrastructure;3
4;MANAGER;XML online Secured;4
5;DIRECTEUR;Freeway utilisation;5
6;CHEF;connecting Handmade Cotton Hat Generic;6
7;MANAGER;Montana impactful Administrator;7
8;CUISINIER;open-source Interactions Organic;8
9;LARBIN;Bulgarian Lev;9
10;DIRECTEUR;Massachusetts;10
