id;prix_ht;tva;composition;couvert;serviette
1;78988;57;Architect Table back-end;true;false
2;26044;48;B2B;false;false
3;24620;39;payment customized Sausages;true;false
4;76237;59;Cotton Games;false;true
5;43762;77;transition port;true;true
6;98880;29;Organized;true;false
7;31531;13;Spur Bike Incredible Metal Bacon;true;false
8;85953;5;PCI Valleys;false;false
9;52536;22;deposit;true;false
10;49394;48;Intelligent Director;true;true
