id;titre;description;type
1;Chèvre en feuilleté;C'est du chèvre;ENTREE
11;Oeuf à la coque;Oeuf à la coque;ENTREE
12;Oeuf mollet et sa salade de cresson;Oeuf et cresson;ENTREE
13;Flan de courgettes;Courgettes;ENTREE
14;Soupe à l'oignon;Oignon;ENTREE
15;Oeufs mimosa au saumon;Oeuf et saumon;ENTREE
16;Soupe de poireaux;Poireaux;ENTREE
17;Soupe de cresson;Cresson;ENTREE
18;Chili con carne;Chili con carne;PLAT
19;Pâtes à la carbonara à la française;Pâtes à la carbonara à la française;PLAT
20;Rougail saucisse;Rougail saucisse;PLAT
21;Croque-monsieur;Croque-monsieur;PLAT
22;Crème brûlée;Crème brûlée;DESSERT
23;Riz au lait;Riz au lait;DESSERT
24;Crumble poire-chocolat et amandes;Crumble poire-chocolat et amandes;DESSERT
