{
  "fluentMethods": true,
  "clientRootFolder": "",
  "relationships": [
    {
      "relationshipName": "user",
      "otherEntityName": "user",
      "relationshipType": "one-to-one",
      "otherEntityField": "login",
      "ownerSide": true,
      "useJPADerivedIdentifier": true,
      "otherEntityRelationshipName": "personneMorale"
    }
  ],
  "fields": [
    {
      "fieldName": "raisonSociale",
      "fieldType": "String"
    },
    {
      "fieldName": "siret",
      "fieldType": "String"
    }
  ],
  "changelogDate": "20210209143508",
  "dto": "mapstruct",
  "searchEngine": "elasticsearch",
  "service": "serviceClass",
  "entityTableName": "personne_morale",
  "databaseType": "sql",
  "readOnly": false,
  "jpaMetamodelFiltering": false,
  "pagination": "no"
}
